{
  "ids": {
    "Todo": 6
  },
  "models": {
    "Todo": {
      "1": "{\"title\":\"Take over the galaxy\",\"desc\":\"MWAHAHAHAHAHAHAHAHAHAHAHAHAMWAHAHAHAHAHAHAHAHAHAHAHAHA\",\"todoListId\":1,\"id\":1}",
      "2": "{\"title\":\"destroy alderaan\",\"desc\":\"Make sure there are no survivors left!\",\"todoListId\":1,\"id\":2}",
      "3": "{\"title\":\"play space invaders\",\"desc\":\"Become the very best!\",\"todoListId\":2,\"id\":3}",
      "4": "{\"title\":\"crush rebel scum\",\"desc\":\"Every.Last.One.\",\"todoListId\":1,\"id\":4}",
      "5": "{\"title\":\"new todo\",\"desc\":\"some description\",\"remindAtAddress\":\"20 W 34th St, New York\",\"remindAtGeo\":\"40.748756,-73.985344\",\"isComplete\":false,\"id\":5}"
    },
    "TodoList": {
      "1": "{\"title\":\"Sith lord's check list\",\"color\":\"blue\",\"id\":1}",
      "2": "{\"title\":\"My daily chores\",\"color\":\"red\",\"id\":2}"
    }
  }
}
